{
    "type": "application",
    "source-directories": [
        "src"
    ],
    "elm-version": "0.19.1",
    "dependencies": {
        "direct": {
            "elm/browser": "1.0.1",
            "elm/core": "1.0.2",
            "elm/html": "1.0.0",
            "elm/json": "1.1.3",
            "elm/svg": "1.0.1",
            "elm-explorations/linear-algebra": "1.0.3",
            "zaboco/elm-draggable": "4.0.5"
        },
        "indirect": {
            "elm/bytes": "1.0.8",
            "elm/file": "1.0.5",
            "elm/time": "1.0.0",
            "elm/url": "1.0.0",
            "elm/virtual-dom": "1.0.2",
            "mpizenberg/elm-pointer-events": "4.0.1"
        }
    },
    "test-dependencies": {
        "direct": {},
        "indirect": {}
    }
}
